# A tibble: 1,000 × 3
    pred  xdata sim_num
   <dbl>  <dbl>   <dbl>
 1  5.77 13611.       0
 2 10.4  16930.       0
 3  9.99 17686.       0
 4  4.77 17806.       0
 5 -9.20 17688.       0
 6 -3.42 17511.       0
 7 12.2  17155.       0
 8 15.2  16805.       0
 9  1.67 16127.       0
10  6.68 14253.       0
# ℹ 990 more rows
# ℹ Use `print(n = ...)` to see more rows
