# A tibble: 1,000 × 17
      ID  NTLD   CONC TRTG      DOSE DOSEF TAFD    RRBL  HRBL  QTBL    RR    HR    QT QTCPBL  QTCP QTCPBLM deltaQTCPBL
   <int> <dbl>  <dbl> <fct>    <dbl> <fct> <chr>  <dbl> <dbl> <dbl> <dbl> <dbl> <dbl>  <dbl> <dbl>   <dbl>       <dbl>
 1     1   0.5 13611. D - A2Ai   250 250   0.5 HR 1109.  54.1  398. 1053.  57.0  395.   384.  388.    384.      -0.354
 2     1   1   16930. D - A2Ai   250 250   1 HR   1109.  54.1  398. 1222.  49.1  399.   384.  371.    384.      -0.354
 3     1   1.5 17686. D - A2Ai   250 250   1.5 HR 1109.  54.1  398.  992.  60.5  392.   384.  393.    384.      -0.354
 4     1   2   17806. D - A2Ai   250 250   2 HR   1109.  54.1  398. 1130.  53.1  402.   384.  385.    384.      -0.354
 5     1   3   17688. D - A2Ai   250 250   3 HR   1109.  54.1  398. 1084.  55.4  399.   384.  388.    384.      -0.354
 6     1   4   17511. D - A2Ai   250 250   4 HR   1109.  54.1  398. 1039.  57.7  391.   384.  386.    384.      -0.354
 7     1   6   17155. D - A2Ai   250 250   6 HR   1109.  54.1  398. 1183.  50.7  399.   384.  375.    384.      -0.354
 8     1   8   16805. D - A2Ai   250 250   8 HR   1109.  54.1  398. 1043.  57.5  388.   384.  383.    384.      -0.354
 9     1  12   16127. D - A2Ai   250 250   12 HR  1109.  54.1  398. 1125.  53.3  399.   384.  383.    384.      -0.354
10     1  24   14253. D - A2Ai   250 250   24 HR  1109.  54.1  398. 1051.  57.1  404.   384.  397.    384.      -0.354
# ℹ 990 more rows
# ℹ Use `print(n = ...)` to see more rows
