# A tibble: 38 × 4
    conc  pred lower  upper
   <dbl> <dbl> <dbl>  <dbl>
 1     0 -7.18 -9.55 -4.81 
 2    10 -6.68 -9.04 -4.32 
 3    20 -6.18 -8.53 -3.82 
 4    30 -5.67 -8.03 -3.32 
 5    40 -5.17 -7.53 -2.81 
 6    50 -4.66 -7.04 -2.29 
 7    60 -4.16 -6.55 -1.77 
 8    70 -3.66 -6.07 -1.24 
 9    80 -3.15 -5.60 -0.706
10    90 -2.65 -5.13 -0.168
# ℹ 28 more rows 
