# A tibble: 643 × 3
     pred xdata sim_num
    <dbl> <dbl>   <dbl>
 1  10.5      0       0
 2  -8.08     0       0
 3   3.43     0       0
 4  -5.41     0       0
 5 -12.6      0       0
 6 -13.6      0       0
 7  -5.07     0       0
 8 -15.3      0       0
 9   2.67     0       0
10 -16.6      0       0
# ℹ 633 more rows 
